<svg width="26" height="26" viewBox="0 0 26 26" fill="none" xmlns="http://www.w3.org/2000/svg">
<mask id="mask0_110_2012" style="mask-type:alpha" maskUnits="userSpaceOnUse" x="0" y="0" width="26" height="26">
<rect width="26" height="26" fill="#D9D9D9"/>
</mask>
<g mask="url(#mask0_110_2012)">
<path d="M10.3449 19.4999L4.16992 13.3249L5.71367 11.7811L10.3449 16.4124L20.2845 6.47278L21.8283 8.01653L10.3449 19.4999Z" fill="#1BBFA3"/>
</g>
</svg>
