<svg width="20" height="20" viewBox="0 0 20 20" fill="none" xmlns="http://www.w3.org/2000/svg">
<mask id="mask0_133_817" style="mask-type:alpha" maskUnits="userSpaceOnUse" x="0" y="0" width="20" height="20">
<rect width="20" height="20" fill="#D9D9D9"/>
</mask>
<g mask="url(#mask0_133_817)">
<path d="M10.0026 16.6668L8.8151 15.5002L13.4818 10.8335H3.33594V9.16683H13.4818L8.8151 4.50016L10.0026 3.3335L16.6693 10.0002L10.0026 16.6668Z" fill="#1BBFA3"/>
</g>
</svg>
